EESchema Schematic File Version 4
EELAYER 30 0
EELAYER END
$Descr A4 11693 8268
encoding utf-8
Sheet 1 1
Title ""
Date ""
Rev ""
Comp ""
Comment1 ""
Comment2 ""
Comment3 ""
Comment4 ""
$EndDescr
Wire Wire Line
	9150 2750 9450 2750
$Comp
L Device:R R5
U 1 1 5D368C56
P 9600 2750
F 0 "R5" V 9393 2750 50  0000 C CNN
F 1 "22R" V 9484 2750 50  0000 C CNN
F 2 "Resistor_SMD:R_0603_1608Metric" V 9530 2750 50  0001 C CNN
F 3 "~" H 9600 2750 50  0001 C CNN
	1    9600 2750
	0    1    1    0   
$EndComp
$Comp
L Device:R R6
U 1 1 5D369090
P 9600 2850
F 0 "R6" V 9715 2850 50  0000 C CNN
F 1 "22R" V 9806 2850 50  0000 C CNN
F 2 "Resistor_SMD:R_0603_1608Metric" V 9530 2850 50  0001 C CNN
F 3 "~" H 9600 2850 50  0001 C CNN
	1    9600 2850
	0    1    1    0   
$EndComp
$Comp
L power:+3.3V #PWR0101
U 1 1 5D369697
P 9400 3300
F 0 "#PWR0101" H 9400 3150 50  0001 C CNN
F 1 "+3.3V" H 9415 3473 50  0000 C CNN
F 2 "" H 9400 3300 50  0001 C CNN
F 3 "" H 9400 3300 50  0001 C CNN
	1    9400 3300
	-1   0    0    1   
$EndComp
Wire Wire Line
	9450 2850 9400 2850
$Comp
L Device:R R4
U 1 1 5D36A869
P 9400 3150
F 0 "R4" H 9330 3196 50  0000 R CNN
F 1 "1.5k" H 9330 3105 50  0000 R CNN
F 2 "Resistor_SMD:R_0603_1608Metric" V 9330 3150 50  0001 C CNN
F 3 "~" H 9400 3150 50  0001 C CNN
	1    9400 3150
	1    0    0    -1  
$EndComp
Wire Wire Line
	9400 3000 9400 2850
Connection ~ 9400 2850
Wire Wire Line
	9400 2850 9150 2850
Text GLabel 9950 2850 2    50   Input ~ 0
USB_DP
Wire Wire Line
	9750 2850 9950 2850
Text GLabel 9950 2750 2    50   Input ~ 0
USB_DM
Wire Wire Line
	9950 2750 9750 2750
Text GLabel 9750 1600 3    50   Input ~ 0
USB_DM
Text GLabel 9450 1600 3    50   Input ~ 0
USB_DP
$Comp
L power:+3.3V #PWR0102
U 1 1 5D36E66E
P 7450 5350
F 0 "#PWR0102" H 7450 5200 50  0001 C CNN
F 1 "+3.3V" V 7465 5478 50  0000 L CNN
F 2 "" H 7450 5350 50  0001 C CNN
F 3 "" H 7450 5350 50  0001 C CNN
	1    7450 5350
	0    -1   -1   0   
$EndComp
$Comp
L Device:R R3
U 1 1 5D36F4CA
P 7900 5350
F 0 "R3" V 8107 5350 50  0000 C CNN
F 1 "670" V 8016 5350 50  0000 C CNN
F 2 "Resistor_SMD:R_0603_1608Metric" V 7830 5350 50  0001 C CNN
F 3 "~" H 7900 5350 50  0001 C CNN
	1    7900 5350
	0    -1   -1   0   
$EndComp
$Comp
L power:GND #PWR0103
U 1 1 5D36FBF7
P 8350 5350
F 0 "#PWR0103" H 8350 5100 50  0001 C CNN
F 1 "GND" V 8355 5222 50  0000 R CNN
F 2 "" H 8350 5350 50  0001 C CNN
F 3 "" H 8350 5350 50  0001 C CNN
	1    8350 5350
	0    -1   -1   0   
$EndComp
$Comp
L Device:LED D2
U 1 1 5D37017E
P 8200 5350
F 0 "D2" H 8193 5095 50  0000 C CNN
F 1 "LED_red" H 8193 5186 50  0000 C CNN
F 2 "LED_SMD:LED_0603_1608Metric" H 8200 5350 50  0001 C CNN
F 3 "~" H 8200 5350 50  0001 C CNN
	1    8200 5350
	-1   0    0    1   
$EndComp
Text Notes 9200 2400 0    50   ~ 0
USB port
Text GLabel 5600 4800 2    50   Input ~ 0
DIO
Text GLabel 5600 4900 2    50   Input ~ 0
DCLK
$Comp
L Connector:Conn_01x04_Male J6
U 1 1 5D373AFC
P 9050 4300
F 0 "J6" H 9158 4581 50  0000 C CNN
F 1 "Conn_01x04_Male" H 9158 4490 50  0000 C CNN
F 2 "Connector_PinHeader_2.54mm:PinHeader_1x04_P2.54mm_Vertical" H 9050 4300 50  0001 C CNN
F 3 "~" H 9050 4300 50  0001 C CNN
	1    9050 4300
	1    0    0    -1  
$EndComp
Text Notes 9000 3900 0    50   ~ 0
SVD port
$Comp
L Device:C C1
U 1 1 5D3759B1
P 10150 4350
F 0 "C1" H 10265 4396 50  0000 L CNN
F 1 "C" H 10265 4305 50  0000 L CNN
F 2 "Capacitor_SMD:C_0603_1608Metric" H 10188 4200 50  0001 C CNN
F 3 "~" H 10150 4350 50  0001 C CNN
	1    10150 4350
	1    0    0    -1  
$EndComp
Wire Wire Line
	9250 4200 9700 4200
Wire Wire Line
	10150 4500 9700 4500
$Comp
L power:+3.3V #PWR0104
U 1 1 5D376350
P 9700 4200
F 0 "#PWR0104" H 9700 4050 50  0001 C CNN
F 1 "+3.3V" H 9715 4373 50  0000 C CNN
F 2 "" H 9700 4200 50  0001 C CNN
F 3 "" H 9700 4200 50  0001 C CNN
	1    9700 4200
	1    0    0    -1  
$EndComp
$Comp
L power:GND #PWR0105
U 1 1 5D376634
P 9700 4500
F 0 "#PWR0105" H 9700 4250 50  0001 C CNN
F 1 "GND" H 9705 4327 50  0000 C CNN
F 2 "" H 9700 4500 50  0001 C CNN
F 3 "" H 9700 4500 50  0001 C CNN
	1    9700 4500
	1    0    0    -1  
$EndComp
Connection ~ 9700 4500
Wire Wire Line
	9700 4500 9250 4500
Connection ~ 9700 4200
Wire Wire Line
	9700 4200 10150 4200
Text GLabel 9500 4300 2    50   Input ~ 0
DIO
Text GLabel 9500 4400 2    50   Input ~ 0
DCLK
Wire Wire Line
	9500 4300 9250 4300
Wire Wire Line
	9500 4400 9250 4400
Wire Notes Line
	10500 3600 8700 3600
$Comp
L Regulator_Linear:LM1117-3.3 U2
U 1 1 5D38344E
P 9550 5400
F 0 "U2" H 9550 5642 50  0000 C CNN
F 1 "LM1117-3.3" H 9550 5551 50  0000 C CNN
F 2 "Package_TO_SOT_SMD:SOT-23" H 9550 5400 50  0001 C CNN
F 3 "http://www.ti.com/lit/ds/symlink/lm1117.pdf" H 9550 5400 50  0001 C CNN
	1    9550 5400
	1    0    0    -1  
$EndComp
$Comp
L power:GND #PWR0106
U 1 1 5D383E25
P 9550 5900
F 0 "#PWR0106" H 9550 5650 50  0001 C CNN
F 1 "GND" H 9555 5727 50  0000 C CNN
F 2 "" H 9550 5900 50  0001 C CNN
F 3 "" H 9550 5900 50  0001 C CNN
	1    9550 5900
	1    0    0    -1  
$EndComp
$Comp
L Device:C_Small C8
U 1 1 5D3846AC
P 10000 5800
F 0 "C8" H 10092 5846 50  0000 L CNN
F 1 "10uF2" H 10092 5755 50  0000 L CNN
F 2 "Capacitor_SMD:C_0603_1608Metric" H 10000 5800 50  0001 C CNN
F 3 "~" H 10000 5800 50  0001 C CNN
	1    10000 5800
	1    0    0    -1  
$EndComp
Wire Wire Line
	9050 5700 9050 5400
Wire Wire Line
	9050 5400 9250 5400
Wire Wire Line
	9550 5900 10000 5900
Connection ~ 9550 5900
Wire Wire Line
	10000 5700 10000 5400
Wire Wire Line
	10000 5400 9850 5400
$Comp
L power:+3.3V #PWR0107
U 1 1 5D386B50
P 10000 5400
F 0 "#PWR0107" H 10000 5250 50  0001 C CNN
F 1 "+3.3V" V 10015 5528 50  0000 L CNN
F 2 "" H 10000 5400 50  0001 C CNN
F 3 "" H 10000 5400 50  0001 C CNN
	1    10000 5400
	0    1    1    0   
$EndComp
$Comp
L power:+5V #PWR0108
U 1 1 5D3878B3
P 9050 5400
F 0 "#PWR0108" H 9050 5250 50  0001 C CNN
F 1 "+5V" V 9065 5528 50  0000 L CNN
F 2 "" H 9050 5400 50  0001 C CNN
F 3 "" H 9050 5400 50  0001 C CNN
	1    9050 5400
	0    -1   -1   0   
$EndComp
$Comp
L power:+5V #PWR0110
U 1 1 5D3895E7
P 10450 1600
F 0 "#PWR0110" H 10450 1450 50  0001 C CNN
F 1 "+5V" H 10465 1773 50  0000 C CNN
F 2 "" H 10450 1600 50  0001 C CNN
F 3 "" H 10450 1600 50  0001 C CNN
	1    10450 1600
	0    1    1    0   
$EndComp
Connection ~ 10000 5400
Connection ~ 9050 5400
Text Notes 9000 5150 0    50   ~ 0
PSU\n
Wire Notes Line
	10500 2250 10500 6150
Wire Notes Line
	8700 2250 8700 6150
Wire Wire Line
	5100 5300 5100 5200
Wire Wire Line
	5000 5200 5000 5300
Connection ~ 5000 5300
Wire Wire Line
	5000 5300 5100 5300
Wire Wire Line
	4900 5200 4900 5300
Connection ~ 4900 5300
Wire Wire Line
	4900 5300 5000 5300
Wire Wire Line
	4800 5200 4800 5300
Wire Wire Line
	4800 5300 4900 5300
$Comp
L power:GND #PWR0111
U 1 1 5D393226
P 4900 5500
F 0 "#PWR0111" H 4900 5250 50  0001 C CNN
F 1 "GND" H 4905 5327 50  0000 C CNN
F 2 "" H 4900 5500 50  0001 C CNN
F 3 "" H 4900 5500 50  0001 C CNN
	1    4900 5500
	1    0    0    -1  
$EndComp
Wire Wire Line
	4900 5500 4900 5300
$Comp
L power:+3.3V #PWR0112
U 1 1 5D393F2C
P 5100 2000
F 0 "#PWR0112" H 5100 1850 50  0001 C CNN
F 1 "+3.3V" H 5115 2173 50  0000 C CNN
F 2 "" H 5100 2000 50  0001 C CNN
F 3 "" H 5100 2000 50  0001 C CNN
	1    5100 2000
	1    0    0    -1  
$EndComp
Wire Wire Line
	4900 2200 4900 2000
Wire Wire Line
	4900 2000 5000 2000
Wire Wire Line
	5100 2000 5200 2000
Connection ~ 5100 2000
Wire Wire Line
	5000 2200 5000 2000
Connection ~ 5000 2000
Wire Wire Line
	5000 2000 5100 2000
Wire Wire Line
	5100 2200 5100 2000
Wire Wire Line
	5200 2200 5200 2000
Text GLabel 4800 2000 1    50   Input ~ 0
VBAT
Wire Wire Line
	4800 2000 4800 2200
$Comp
L Switch:SW_Push SW1
U 1 1 5D399D97
P 8000 3000
F 0 "SW1" H 8000 2907 50  0000 C CNN
F 1 "SW_Push" H 8000 2816 50  0000 C CNN
F 2 "Button_Switch_THT:SW_DIP_SPSTx01_Slide_6.7x4.1mm_W7.62mm_P2.54mm_LowProfile" H 8000 3200 50  0001 C CNN
F 3 "~" H 8000 3200 50  0001 C CNN
	1    8000 3000
	1    0    0    -1  
$EndComp
$Comp
L power:+3.3V #PWR0113
U 1 1 5D39AD42
P 7550 3450
F 0 "#PWR0113" H 7550 3300 50  0001 C CNN
F 1 "+3.3V" H 7565 3623 50  0000 C CNN
F 2 "" H 7550 3450 50  0001 C CNN
F 3 "" H 7550 3450 50  0001 C CNN
	1    7550 3450
	-1   0    0    1   
$EndComp
$Comp
L power:GND #PWR0114
U 1 1 5D39B713
P 8250 3000
F 0 "#PWR0114" H 8250 2750 50  0001 C CNN
F 1 "GND" V 8255 2872 50  0000 R CNN
F 2 "" H 8250 3000 50  0001 C CNN
F 3 "" H 8250 3000 50  0001 C CNN
	1    8250 3000
	0    -1   -1   0   
$EndComp
$Comp
L Device:R R1
U 1 1 5D39BF2F
P 7550 3200
F 0 "R1" H 7620 3246 50  0000 L CNN
F 1 "10k" H 7620 3155 50  0000 L CNN
F 2 "Resistor_SMD:R_0603_1608Metric" V 7480 3200 50  0001 C CNN
F 3 "~" H 7550 3200 50  0001 C CNN
	1    7550 3200
	1    0    0    -1  
$EndComp
$Comp
L power:GND #PWR0115
U 1 1 5D39CACE
P 7550 2700
F 0 "#PWR0115" H 7550 2450 50  0001 C CNN
F 1 "GND" H 7555 2527 50  0000 C CNN
F 2 "" H 7550 2700 50  0001 C CNN
F 3 "" H 7550 2700 50  0001 C CNN
	1    7550 2700
	-1   0    0    1   
$EndComp
$Comp
L Device:C_Small C6
U 1 1 5D39D599
P 7550 2850
F 0 "C6" H 7458 2896 50  0000 R CNN
F 1 "100n" H 7458 2805 50  0000 R CNN
F 2 "Capacitor_SMD:C_0603_1608Metric" H 7550 2850 50  0001 C CNN
F 3 "~" H 7550 2850 50  0001 C CNN
	1    7550 2850
	1    0    0    -1  
$EndComp
Wire Wire Line
	7550 2950 7550 3000
Wire Wire Line
	7550 3000 7800 3000
Connection ~ 7550 3000
Wire Wire Line
	7550 3000 7550 3050
Wire Wire Line
	7550 2750 7550 2700
Wire Wire Line
	7550 3350 7550 3450
Wire Wire Line
	8200 3000 8250 3000
Text GLabel 7400 3000 0    50   Input ~ 0
NRST
Wire Wire Line
	7400 3000 7550 3000
Text GLabel 4300 2400 0    50   Input ~ 0
NRST
Text Notes 7250 2400 0    50   ~ 0
Reset\n
Wire Notes Line
	6950 3750 8700 3750
Wire Notes Line
	6950 2250 10500 2250
$Comp
L power:+3.3V #PWR0116
U 1 1 5D3B3943
P 7900 4600
F 0 "#PWR0116" H 7900 4450 50  0001 C CNN
F 1 "+3.3V" V 7915 4728 50  0000 L CNN
F 2 "" H 7900 4600 50  0001 C CNN
F 3 "" H 7900 4600 50  0001 C CNN
	1    7900 4600
	0    1    1    0   
$EndComp
$Comp
L power:+3.3V #PWR0117
U 1 1 5D3B3F97
P 7900 4150
F 0 "#PWR0117" H 7900 4000 50  0001 C CNN
F 1 "+3.3V" V 7915 4278 50  0000 L CNN
F 2 "" H 7900 4150 50  0001 C CNN
F 3 "" H 7900 4150 50  0001 C CNN
	1    7900 4150
	0    1    1    0   
$EndComp
$Comp
L power:GND #PWR0118
U 1 1 5D3B4669
P 7500 4150
F 0 "#PWR0118" H 7500 3900 50  0001 C CNN
F 1 "GND" V 7505 4022 50  0000 R CNN
F 2 "" H 7500 4150 50  0001 C CNN
F 3 "" H 7500 4150 50  0001 C CNN
	1    7500 4150
	0    1    1    0   
$EndComp
$Comp
L power:GND #PWR0119
U 1 1 5D3B4B30
P 7500 4600
F 0 "#PWR0119" H 7500 4350 50  0001 C CNN
F 1 "GND" V 7505 4472 50  0000 R CNN
F 2 "" H 7500 4600 50  0001 C CNN
F 3 "" H 7500 4600 50  0001 C CNN
	1    7500 4600
	0    1    1    0   
$EndComp
Text GLabel 8100 4300 2    50   Input ~ 0
BOOT1
Text GLabel 8050 4750 2    50   Input ~ 0
BOOT0
$Comp
L Jumper:SolderJumper_3_Bridged12 B0
U 1 1 5D3B9B58
P 7700 4600
F 0 "B0" H 7700 4805 50  0000 C CNN
F 1 "SolderJumper_3_Bridged12" H 7700 4714 50  0000 C CNN
F 2 "Jumper:SolderJumper-3_P1.3mm_Bridged2Bar12_RoundedPad1.0x1.5mm" H 7700 4600 50  0001 C CNN
F 3 "~" H 7700 4600 50  0001 C CNN
	1    7700 4600
	1    0    0    -1  
$EndComp
$Comp
L Jumper:SolderJumper_3_Bridged12 B1
U 1 1 5D3BAC6F
P 7700 4150
F 0 "B1" H 7700 4355 50  0000 C CNN
F 1 "SolderJumper_3_Bridged12" H 7700 4264 50  0000 C CNN
F 2 "Jumper:SolderJumper-3_P1.3mm_Bridged2Bar12_RoundedPad1.0x1.5mm" H 7700 4150 50  0001 C CNN
F 3 "~" H 7700 4150 50  0001 C CNN
	1    7700 4150
	1    0    0    -1  
$EndComp
Text Notes 7050 3900 0    50   ~ 0
Boot selector\n
Wire Notes Line
	6950 4950 10500 4950
$Comp
L Jumper:SolderJumper_2_Bridged JP2
U 1 1 5D3C3E24
P 7600 5350
F 0 "JP2" H 7600 5555 50  0000 C CNN
F 1 "SolderJumper_2_Bridged" H 7600 5200 50  0000 C CNN
F 2 "Jumper:SolderJumper-2_P1.3mm_Open_RoundedPad1.0x1.5mm" H 7600 5350 50  0001 C CNN
F 3 "~" H 7600 5350 50  0001 C CNN
	1    7600 5350
	1    0    0    -1  
$EndComp
$Comp
L Device:R R2
U 1 1 5D3CEF37
P 7850 5850
F 0 "R2" V 8057 5850 50  0000 C CNN
F 1 "670" V 7966 5850 50  0000 C CNN
F 2 "Resistor_SMD:R_0603_1608Metric" V 7780 5850 50  0001 C CNN
F 3 "~" H 7850 5850 50  0001 C CNN
	1    7850 5850
	0    -1   -1   0   
$EndComp
$Comp
L power:GND #PWR0120
U 1 1 5D3CEF3D
P 8300 5850
F 0 "#PWR0120" H 8300 5600 50  0001 C CNN
F 1 "GND" V 8305 5722 50  0000 R CNN
F 2 "" H 8300 5850 50  0001 C CNN
F 3 "" H 8300 5850 50  0001 C CNN
	1    8300 5850
	0    -1   -1   0   
$EndComp
$Comp
L Device:LED D1
U 1 1 5D3CEF43
P 8150 5850
F 0 "D1" H 8143 5595 50  0000 C CNN
F 1 "LED_green" H 8143 5686 50  0000 C CNN
F 2 "LED_SMD:LED_0603_1608Metric" H 8150 5850 50  0001 C CNN
F 3 "~" H 8150 5850 50  0001 C CNN
	1    8150 5850
	-1   0    0    1   
$EndComp
Text GLabel 7700 5850 0    50   Input ~ 0
PB0
Text Notes 7000 5100 0    50   ~ 0
Power and user LED
Wire Notes Line
	6950 6150 10500 6150
Wire Notes Line
	6950 2250 6950 6150
$Comp
L Connector_Generic:Conn_01x20 J1
U 1 1 5D3D51D1
P 800 3100
F 0 "J1" H 718 4217 50  0000 C CNN
F 1 "Conn_01x20" H 718 4126 50  0000 C CNN
F 2 "Connector_PinHeader_2.54mm:PinHeader_1x20_P2.54mm_Vertical" H 800 3100 50  0001 C CNN
F 3 "~" H 800 3100 50  0001 C CNN
	1    800  3100
	-1   0    0    -1  
$EndComp
$Comp
L Connector_Generic:Conn_01x20 J4
U 1 1 5D3D66FD
P 2600 3050
F 0 "J4" H 2680 3042 50  0000 L CNN
F 1 "Conn_01x20" H 2680 2951 50  0000 L CNN
F 2 "Connector_PinHeader_2.54mm:PinHeader_1x20_P2.54mm_Vertical" H 2600 3050 50  0001 C CNN
F 3 "~" H 2600 3050 50  0001 C CNN
	1    2600 3050
	1    0    0    -1  
$EndComp
$Comp
L power:+3.3V #PWR0121
U 1 1 5D3E35F1
P 1000 4100
F 0 "#PWR0121" H 1000 3950 50  0001 C CNN
F 1 "+3.3V" V 1015 4228 50  0000 L CNN
F 2 "" H 1000 4100 50  0001 C CNN
F 3 "" H 1000 4100 50  0001 C CNN
	1    1000 4100
	0    1    1    0   
$EndComp
$Comp
L power:GND #PWR0122
U 1 1 5D3E427D
P 1000 4000
F 0 "#PWR0122" H 1000 3750 50  0001 C CNN
F 1 "GND" V 1005 3872 50  0000 R CNN
F 2 "" H 1000 4000 50  0001 C CNN
F 3 "" H 1000 4000 50  0001 C CNN
	1    1000 4000
	0    -1   -1   0   
$EndComp
$Comp
L power:+5V #PWR0123
U 1 1 5D3E4B84
P 1000 3900
F 0 "#PWR0123" H 1000 3750 50  0001 C CNN
F 1 "+5V" V 1015 4028 50  0000 L CNN
F 2 "" H 1000 3900 50  0001 C CNN
F 3 "" H 1000 3900 50  0001 C CNN
	1    1000 3900
	0    1    1    0   
$EndComp
Text GLabel 1000 3800 2    50   Input ~ 0
PB9
Text GLabel 1000 3700 2    50   Input ~ 0
PB8
Text GLabel 1000 3600 2    50   Input ~ 0
PB7
Text GLabel 1000 3500 2    50   Input ~ 0
PB6
Text GLabel 1000 3400 2    50   Input ~ 0
PB5
Text GLabel 1000 3300 2    50   Input ~ 0
PB4
Text GLabel 1000 3200 2    50   Input ~ 0
PB3
Text GLabel 1000 3100 2    50   Input ~ 0
PA15
Text GLabel 1000 3000 2    50   Input ~ 0
PA12
Text GLabel 1000 2900 2    50   Input ~ 0
PA11
Text GLabel 1000 2800 2    50   Input ~ 0
PA10
Text GLabel 1000 2700 2    50   Input ~ 0
PA9
Text GLabel 1000 2600 2    50   Input ~ 0
PA8
Text GLabel 1000 2500 2    50   Input ~ 0
PB15
Text GLabel 1000 2400 2    50   Input ~ 0
PB14
Text GLabel 1000 2300 2    50   Input ~ 0
PB13
Text GLabel 1000 2200 2    50   Input ~ 0
PB12
Text GLabel 2400 4050 0    50   Input ~ 0
VBAT
Text GLabel 2400 3950 0    50   Input ~ 0
PC13
Text GLabel 2400 3850 0    50   Input ~ 0
PC14
Text GLabel 2400 3750 0    50   Input ~ 0
PC15
Text GLabel 2400 3650 0    50   Input ~ 0
PA0
Text GLabel 2400 3550 0    50   Input ~ 0
PA1
Text GLabel 2400 3450 0    50   Input ~ 0
PA2
Text GLabel 2400 3350 0    50   Input ~ 0
PA3
Text GLabel 2400 3250 0    50   Input ~ 0
PA4
Text GLabel 2400 3150 0    50   Input ~ 0
PA5
Text GLabel 2400 3050 0    50   Input ~ 0
PA6
Text GLabel 2400 2950 0    50   Input ~ 0
PA7
Text GLabel 2400 2850 0    50   Input ~ 0
PB0
Text GLabel 2400 2650 0    50   Input ~ 0
PB10
Text GLabel 2400 2550 0    50   Input ~ 0
PB11
Text GLabel 2400 2450 0    50   Input ~ 0
NRST
$Comp
L power:+3.3V #PWR0124
U 1 1 5D3EA0AA
P 2400 2350
F 0 "#PWR0124" H 2400 2200 50  0001 C CNN
F 1 "+3.3V" V 2415 2478 50  0000 L CNN
F 2 "" H 2400 2350 50  0001 C CNN
F 3 "" H 2400 2350 50  0001 C CNN
	1    2400 2350
	0    -1   -1   0   
$EndComp
$Comp
L power:GND #PWR0125
U 1 1 5D3EA69C
P 2400 2150
F 0 "#PWR0125" H 2400 1900 50  0001 C CNN
F 1 "GND" V 2405 2022 50  0000 R CNN
F 2 "" H 2400 2150 50  0001 C CNN
F 3 "" H 2400 2150 50  0001 C CNN
	1    2400 2150
	0    1    1    0   
$EndComp
Text GLabel 2400 2750 0    50   Input ~ 0
PB1
$Comp
L power:GND #PWR0126
U 1 1 5D3EC561
P 2400 2250
F 0 "#PWR0126" H 2400 2000 50  0001 C CNN
F 1 "GND" V 2405 2122 50  0000 R CNN
F 2 "" H 2400 2250 50  0001 C CNN
F 3 "" H 2400 2250 50  0001 C CNN
	1    2400 2250
	0    1    1    0   
$EndComp
Text GLabel 5600 5000 2    50   Input ~ 0
PA15
Text GLabel 5600 4700 2    50   Input ~ 0
PA12
Text GLabel 5600 4600 2    50   Input ~ 0
PA11
Text GLabel 5600 4500 2    50   Input ~ 0
PA10
Text GLabel 5600 4400 2    50   Input ~ 0
PA9
Text GLabel 5600 4300 2    50   Input ~ 0
PA8
Text GLabel 9150 2750 0    50   Input ~ 0
PA11
Text GLabel 9150 2850 0    50   Input ~ 0
PA12
Text GLabel 4300 3100 0    50   Input ~ 0
PC13
Text GLabel 5600 3500 2    50   Input ~ 0
PA0
Text GLabel 5600 3600 2    50   Input ~ 0
PA1
Text GLabel 5600 3700 2    50   Input ~ 0
PA2
Text GLabel 5600 3800 2    50   Input ~ 0
PA3
Text GLabel 5600 3900 2    50   Input ~ 0
PA4
Text GLabel 5600 4000 2    50   Input ~ 0
PA5
Text GLabel 5600 4100 2    50   Input ~ 0
PA6
Text GLabel 5600 4200 2    50   Input ~ 0
PA7
Text GLabel 4300 2600 0    50   Input ~ 0
BOOT0
$Comp
L Device:R_Small R8
U 1 1 5D3F8114
P 7900 4750
F 0 "R8" V 7800 4750 50  0000 C CNN
F 1 "100k" V 7750 4750 50  0000 C CNN
F 2 "Resistor_SMD:R_0603_1608Metric" H 7900 4750 50  0001 C CNN
F 3 "~" H 7900 4750 50  0001 C CNN
	1    7900 4750
	0    -1   -1   0   
$EndComp
Wire Wire Line
	7800 4750 7700 4750
Wire Wire Line
	8050 4750 8000 4750
$Comp
L Device:R_Small R7
U 1 1 5D3FD81B
P 7900 4300
F 0 "R7" V 7800 4300 50  0000 C CNN
F 1 "100k" V 7750 4300 50  0000 C CNN
F 2 "Resistor_SMD:R_0603_1608Metric" H 7900 4300 50  0001 C CNN
F 3 "~" H 7900 4300 50  0001 C CNN
	1    7900 4300
	0    -1   -1   0   
$EndComp
Wire Wire Line
	7700 4300 7800 4300
Wire Wire Line
	8000 4300 8100 4300
Text GLabel 4300 2800 0    50   Input ~ 0
PD0
Text GLabel 4300 2900 0    50   Input ~ 0
PD1
Text GLabel 4300 3200 0    50   Input ~ 0
PC14
Text GLabel 4300 3300 0    50   Input ~ 0
PC15
Text GLabel 5900 6900 0    50   Input ~ 0
PD0
$Comp
L Device:Crystal Y2
U 1 1 5D51167C
P 6200 6900
F 0 "Y2" H 6200 7168 50  0000 C CNN
F 1 "8M0" H 6200 7077 50  0000 C CNN
F 2 "Crystal:Crystal_SMD_2016-4Pin_2.0x1.6mm" H 6200 6900 50  0001 C CNN
F 3 "~" H 6200 6900 50  0001 C CNN
	1    6200 6900
	1    0    0    -1  
$EndComp
Text GLabel 6500 6900 2    50   Input ~ 0
PD1
$Comp
L Device:C_Small C5
U 1 1 5D51580E
P 6400 7100
F 0 "C5" H 6492 7054 50  0000 L CNN
F 1 "12p" H 6492 7145 50  0000 L CNN
F 2 "Capacitor_SMD:C_0603_1608Metric" H 6400 7100 50  0001 C CNN
F 3 "~" H 6400 7100 50  0001 C CNN
	1    6400 7100
	1    0    0    1   
$EndComp
$Comp
L Device:C_Small C4
U 1 1 5D515E8A
P 6000 7100
F 0 "C4" H 5908 7146 50  0000 R CNN
F 1 "12p" H 5908 7055 50  0000 R CNN
F 2 "Capacitor_SMD:C_0603_1608Metric" H 6000 7100 50  0001 C CNN
F 3 "~" H 6000 7100 50  0001 C CNN
	1    6000 7100
	1    0    0    -1  
$EndComp
$Comp
L power:GND #PWR0127
U 1 1 5D5167AC
P 6000 7200
F 0 "#PWR0127" H 6000 6950 50  0001 C CNN
F 1 "GND" H 6005 7027 50  0000 C CNN
F 2 "" H 6000 7200 50  0001 C CNN
F 3 "" H 6000 7200 50  0001 C CNN
	1    6000 7200
	1    0    0    -1  
$EndComp
$Comp
L power:GND #PWR0128
U 1 1 5D51680B
P 6400 7200
F 0 "#PWR0128" H 6400 6950 50  0001 C CNN
F 1 "GND" H 6405 7027 50  0000 C CNN
F 2 "" H 6400 7200 50  0001 C CNN
F 3 "" H 6400 7200 50  0001 C CNN
	1    6400 7200
	1    0    0    -1  
$EndComp
Wire Wire Line
	5900 6900 6000 6900
Wire Wire Line
	6350 6900 6400 6900
Wire Wire Line
	6400 7000 6400 6900
Connection ~ 6400 6900
Wire Wire Line
	6400 6900 6500 6900
Wire Wire Line
	6000 7000 6000 6900
Connection ~ 6000 6900
Wire Wire Line
	6000 6900 6050 6900
Text GLabel 4450 6900 0    50   Input ~ 0
PC14
$Comp
L Device:Crystal Y1
U 1 1 5D525F49
P 4750 6900
F 0 "Y1" H 4750 7168 50  0000 C CNN
F 1 "32k768" H 4750 7077 50  0000 C CNN
F 2 "Crystal:Crystal_SMD_2012-2Pin_2.0x1.2mm" H 4750 6900 50  0001 C CNN
F 3 "~" H 4750 6900 50  0001 C CNN
	1    4750 6900
	1    0    0    -1  
$EndComp
Text GLabel 5050 6900 2    50   Input ~ 0
PC15
$Comp
L Device:C_Small C3
U 1 1 5D525F50
P 4950 7100
F 0 "C3" H 5042 7054 50  0000 L CNN
F 1 "100p" H 5042 7145 50  0000 L CNN
F 2 "Capacitor_SMD:C_0603_1608Metric" H 4950 7100 50  0001 C CNN
F 3 "~" H 4950 7100 50  0001 C CNN
	1    4950 7100
	1    0    0    1   
$EndComp
$Comp
L Device:C_Small C2
U 1 1 5D525F56
P 4550 7100
F 0 "C2" H 4600 7150 50  0000 R CNN
F 1 "100p" H 13558 21255 50  0000 R CNN
F 2 "Capacitor_SMD:C_0603_1608Metric" H 13650 21300 50  0001 C CNN
F 3 "~" H 13650 21300 50  0001 C CNN
	1    4550 7100
	1    0    0    -1  
$EndComp
$Comp
L power:GND #PWR0129
U 1 1 5D525F5C
P 4550 7200
F 0 "#PWR0129" H 4550 6950 50  0001 C CNN
F 1 "GND" H 4555 7027 50  0000 C CNN
F 2 "" H 4550 7200 50  0001 C CNN
F 3 "" H 4550 7200 50  0001 C CNN
	1    4550 7200
	1    0    0    -1  
$EndComp
$Comp
L power:GND #PWR0130
U 1 1 5D525F62
P 4950 7200
F 0 "#PWR0130" H 4950 6950 50  0001 C CNN
F 1 "GND" H 4955 7027 50  0000 C CNN
F 2 "" H 4950 7200 50  0001 C CNN
F 3 "" H 4950 7200 50  0001 C CNN
	1    4950 7200
	1    0    0    -1  
$EndComp
Wire Wire Line
	4450 6900 4550 6900
Wire Wire Line
	4900 6900 4950 6900
Wire Wire Line
	4950 7000 4950 6900
Connection ~ 4950 6900
Wire Wire Line
	4950 6900 5050 6900
Wire Wire Line
	4550 7000 4550 6900
Connection ~ 4550 6900
Wire Wire Line
	4550 6900 4600 6900
Wire Notes Line
	5450 7500 5450 6550
Wire Notes Line
	6800 6550 6800 7500
Wire Notes Line
	4100 7500 4100 6550
Wire Notes Line
	4100 6550 6800 6550
Wire Notes Line
	4100 7500 6800 7500
Text Notes 4200 6700 0    50   ~ 0
LSE?\n
Text Notes 5550 6700 0    50   ~ 0
HSE?\n
Wire Wire Line
	9050 5900 9550 5900
$Comp
L Device:C_Small C7
U 1 1 5D3842F7
P 9050 5800
F 0 "C7" H 9142 5846 50  0000 L CNN
F 1 "10uF1" H 9142 5755 50  0000 L CNN
F 2 "Capacitor_SMD:C_0603_1608Metric" H 9050 5800 50  0001 C CNN
F 3 "~" H 9050 5800 50  0001 C CNN
	1    9050 5800
	1    0    0    -1  
$EndComp
$Comp
L power:GND #PWR0131
U 1 1 5D38F002
P 9550 5700
F 0 "#PWR0131" H 9550 5450 50  0001 C CNN
F 1 "GND" H 9555 5527 50  0000 C CNN
F 2 "" H 9550 5700 50  0001 C CNN
F 3 "" H 9550 5700 50  0001 C CNN
	1    9550 5700
	1    0    0    -1  
$EndComp
$Comp
L muon-c-rescue:USB_C_Receptacle_USB2.0-Connector J7
U 1 1 5D44CA50
P 9650 1000
F 0 "J7" V 9711 1730 50  0000 L CNN
F 1 "USB_C_Receptacle_USB2.0" V 9802 1730 50  0000 L CNN
F 2 "Connector_USB:USB_C_Receptacle_GCT_USB4085" H 9800 1000 50  0001 C CNN
F 3 "https://www.usb.org/sites/default/files/documents/usb_type-c.zip" H 9800 1000 50  0001 C CNN
	1    9650 1000
	0    1    1    0   
$EndComp
$Comp
L power:GND #PWR0132
U 1 1 5D45021C
P 8600 1000
F 0 "#PWR0132" H 8600 750 50  0001 C CNN
F 1 "GND" V 8605 872 50  0000 R CNN
F 2 "" H 8600 1000 50  0001 C CNN
F 3 "" H 8600 1000 50  0001 C CNN
	1    8600 1000
	0    1    -1   0   
$EndComp
Wire Wire Line
	8750 1000 8600 1000
Wire Wire Line
	8750 700  8600 700 
Wire Wire Line
	8600 700  8600 1000
Connection ~ 8600 1000
Wire Wire Line
	9450 1600 9550 1600
Wire Wire Line
	9650 1600 9750 1600
Wire Wire Line
	10250 1600 10450 1600
$Comp
L Device:R_Small R10
U 1 1 5D46030E
P 10050 1700
F 0 "R10" H 10109 1746 50  0000 L CNN
F 1 "5.1k" H 10109 1655 50  0000 L CNN
F 2 "Resistor_SMD:R_0603_1608Metric" H 10050 1700 50  0001 C CNN
F 3 "~" H 10050 1700 50  0001 C CNN
	1    10050 1700
	1    0    0    -1  
$EndComp
Wire Wire Line
	9950 1800 9950 1900
Wire Wire Line
	10050 1900 10050 1800
$Comp
L Device:R_Small R9
U 1 1 5D45D1FD
P 9950 1700
F 0 "R9" H 9800 1750 50  0000 L CNN
F 1 "5.1k" V 9900 1450 50  0000 L CNN
F 2 "Resistor_SMD:R_0603_1608Metric" H 9950 1700 50  0001 C CNN
F 3 "~" H 9950 1700 50  0001 C CNN
	1    9950 1700
	1    0    0    -1  
$EndComp
Wire Wire Line
	9950 1900 10000 1900
$Comp
L power:GND #PWR0133
U 1 1 5D46C966
P 10000 1900
F 0 "#PWR0133" H 10000 1650 50  0001 C CNN
F 1 "GND" H 10005 1727 50  0000 C CNN
F 2 "" H 10000 1900 50  0001 C CNN
F 3 "" H 10000 1900 50  0001 C CNN
	1    10000 1900
	1    0    0    -1  
$EndComp
Connection ~ 10000 1900
Wire Wire Line
	10000 1900 10050 1900
$Comp
L MCU_ST_STM32F1:STM32F103C8Tx U1
U 1 1 613F4D6B
P 5000 3700
F 0 "U1" H 4950 2111 50  0000 C CNN
F 1 "STM32F103C8Tx" H 4950 2020 50  0000 C CNN
F 2 "Package_QFP:LQFP-48_7x7mm_P0.5mm" H 4400 2300 50  0001 R CNN
F 3 "http://www.st.com/st-web-ui/static/active/en/resource/technical/document/datasheet/CD00161566.pdf" H 5000 3700 50  0001 C CNN
	1    5000 3700
	1    0    0    -1  
$EndComp
Text GLabel 4300 3500 0    50   Input ~ 0
PB0
Text GLabel 4300 4400 0    50   Input ~ 0
PB9
Text GLabel 4300 4300 0    50   Input ~ 0
PB8
Text GLabel 4300 4200 0    50   Input ~ 0
PB7
Text GLabel 4300 4100 0    50   Input ~ 0
PB6
Text GLabel 4300 4000 0    50   Input ~ 0
PB5
Text GLabel 4300 3900 0    50   Input ~ 0
PB4
Text GLabel 4300 3800 0    50   Input ~ 0
PB3
Text GLabel 4300 5000 0    50   Input ~ 0
PB15
Text GLabel 4300 4900 0    50   Input ~ 0
PB14
Text GLabel 4300 4800 0    50   Input ~ 0
PB13
Text GLabel 4300 4700 0    50   Input ~ 0
PB12
Text GLabel 4300 4500 0    50   Input ~ 0
PB10
Text GLabel 4300 4600 0    50   Input ~ 0
PB11
Text GLabel 4300 3600 0    50   Input ~ 0
PB1
Text GLabel 4300 3700 0    50   Input ~ 0
BOOT1
$EndSCHEMATC
